254066 84447 443
481008 229330 449
611608 397087 470
404345 849075 525
799676 494698 509
54772 223521 386
190953 32067 383
913770 787948 525
764359 591991 509
505832 950226 525
860667 477760 525
147236 34955 375
563568 494903 470
38468 956196 525
703275 590221 509
837559 795570 468
829053 774992 468
502596 706754 509
469195 820709 509
617150 917164 525
406589 630472 509
302968 509313 449
430954 374292 449
80391 892988 525
603551 484051 470
657494 306303 509
483805 495510 426
230328 250203 443
85080 506249 449
279493 14381 443
120816 80244 354
621848 745256 509
232586 960913 525
452654 799244 509
343477 944007 525
510342 178851 449
495599 115556 449
561029 796314 509
665261 731204 504
452976 814833 509
549569 669215 509
476565 721 449
175483 668388 509
149099 267001 443
791029 13870 509
728508 537130 509
343368 595998 470
384695 95208 443
876537 215730 525
793802 281088 509
691711 468765 509
650928 542585 509
72470 956539 525
297198 732357 509
578713 895821 525
521256 626343 509
199045 694503 509
249368 473200 449
837221 111107 509
298064 853124 525
724636 861440 525
830954 621962 509
433850 692599 509
479078 162148 449
70891 192572 383
972515 994973 427
119841 106084 354
897283 657656 525
561766 624789 447
521594 967052 525
778779 169439 509
295140 17966 443
202312 134591 383
801604 40009 509
900028 565715 525
283200 592609 470
679756 885139 525
595896 835012 509
744836 589416 509
914704 733798 525
377503 495742 449
390314 459926 449
287720 695306 509
160891 214469 373
477613 669292 509
143511 196093 383
375359 390891 436
837241 613141 509
847078 878371 432
784069 602892 509
534760 301818 470
363719 236039 441
594103 191842 470
994871 761423 525
164413 99233 383
570562 495907 470
882579 667088 525
628933 479921 509
536245 39533 470
434394 566611 470
59813 598677 470
892623 446740 525
664069 198788 509
437898 275180 449
65902 94042 351
721284 752822 424
447570 938591 525
694443 785182 504
762444 443367 509
715348 165993 509
891993 153343 525
983358 491972 525
923367 414220 525
348346 466091 449
744112 165819 509
378885 868382 525
596964 700691 509
338988 383503 441
483729 937820 525
758203 884761 525
761334 845239 525
276152 142772 443
118138 746734 509
668823 490203 509
394525 828987 509
75262 166823 383
916897 846968 476
644566 248244 509
21270 545555 470
76398 351394 443
99746 258238 443
137491 475351 449
650795 361616 509
580949 371998 470
445365 523564 470
125544 981299 525
247876 879896 525
376564 502473 449
810622 256925 509
283428 379200 441
187568 905510 525
686801 502032 509
535073 407941 470
660800 319949 509
563258 275057 470
579890 924216 525
716938 791359 468
818858 684236 504
604423 647737 509
21869 174774 383
727310 65629 509
257007 62766 443
431591 409867 449
441551 971817 525
285896 534290 470
846437 2320 525
643390 952445 525
89175 520958 470
862773 787361 525
950313 106673 525
427406 993145 525
488266 24503 449
982545 321013 525
442558 688405 509
813036 160354 509
771814 360751 509
971507 270049 525
592949 905656 525
552556 970318 525
379684 441500 449
453935 84078 449
593838 693423 509
514748 689744 509
125845 310627 443
610379 331287 470
14322 385876 443
919305 736152 525
742884 390059 509
681846 467609 509
152242 318159 443
35287 120115 354
470408 148026 449
20270 864447 525
239163 221129 443
850656 118129 525
362099 269477 441
195756 568661 470
167252 632420 509
560893 186274 470
36304 476977 449
77604 19265 351
77168 641501 509
393228 263342 441
616157 862074 525
158822 253740 443
531218 942130 525
93507 330980 443
431116 756940 509
572149 944310 525
383618 597194 470
273497 432935 449
867473 356822 525
490481 672787 509
71202 652477 509
304554 958696 525
936876 224641 525
525390 239538 470
577374 275789 470
956808 644201 525
30091 998345 525
657743 93751 509
387637 760237 509
894905 125926 525
4900 444901 449
130371 552726 470
172769 637411 509
425088 363597 449
936436 866237 476
931554 686698 525
26544 722422 509
228429 13743 386
653313 578680 509
729175 278737 509
857163 358483 525
77923 655935 509
824554 413945 509
653658 973762 525
64909 345667 443
414961 737504 509
157821 385906 443
898535 540690 525
594690 892528 525
196900 166115 365
741530 65452 509
982999 264923 525
404701 182909 443
258121 451358 449
433155 536104 470
288143 91639 443
10359 961297 525
875827 579259 525
355745 379997 423
984450 682461 525
526904 431113 470
892903 713283 525
843167 950720 507
413741 612200 470
759528 76044 509
205726 424277 449
266131 817455 509
