421125 874257 525
368715 640144 509
260070 208617 443
465239 422130 444
3866 857807 525
150604 144548 370
807029 593200 509
266788 696673 509
633106 551667 509
245907 967678 525
674597 784299 504
367538 512521 470
799279 749774 468
111988 875366 525
56718 9588 340
12000 479082 449
783476 88598 509
399649 78289 443
864706 801317 525
831139 850444 525
970799 99630 525
271968 737998 509
893406 745030 525
569185 861319 525
68489 744616 509
585756 130503 470
878944 27211 525
791904 336339 509
492265 752076 509
847346 3111 525
516168 323278 470
701873 168776 509
286348 231248 407
852415 465795 525
543484 915184 525
68514 465936 449
530620 132340 470
528556 239044 470
173281 950526 525
975786 532850 525
317044 163829 443
507180 92903 449
99058 120325 354
212398 985960 525
800370 413694 509
576111 821332 509
353350 863603 525
171079 513609 470
901001 999796 507
12527 351970 443
528778 627907 509
415849 65909 449
243838 645614 509
96576 401391 443
209812 188060 373
293917 332444 384
486336 776547 509
404862 684500 509
932453 972731 507
871548 344128 525
228917 338486 443
699901 774236 504
656741 386109 509
998225 893959 507
925502 255524 525
555967 842369 525
542645 509838 470
727106 984096 525
870057 229445 525
385143 786169 509
993450 309879 525
172989 63802 383
503921 450148 444
431958 600470 470
76247 579940 470
619146 736497 509
495010 643064 509
559942 50989 470
389198 456229 449
948257 376588 525
303675 172863 443
953547 395581 525
375413 385760 423
343424 500974 449
373835 700790 509
788285 309860 509
897474 632825 525
216564 62788 386
915 322329 443
622848 495670 470
431609 160297 449
780094 784013 362
782151 54563 509
166588 162773 352
591424 720676 509
585692 114571 470
574385 829274 509
837878 360517 525
853980 403436 525
266554 139176 443
835165 503438 509
110189 570786 470
616601 415856 470
313105 232087 407
39572 878249 525
691006 76699 509
150739 142843 370
286545 841017 525
335004 237081 407
70929 69350 312
584877 894823 525
372742 923549 525
676177 667222 385
406673 261271 441
749391 691883 504
170461 272094 443
378905 58504 443
663901 835682 504
379698 964406 525
642003 806182 504
909125 590587 525
877828 414628 525
152160 195752 383
917914 43387 525
364920 205638 443
580417 57979 470
111377 134975 349
340328 277509 389
216690 560637 470
472154 947970 525
252006 287630 407
799621 4755 509
667971 943789 525
404238 47256 443
579719 411791 470
457196 480780 444
596736 601977 403
830931 604994 509
406519 408658 343
78670 663900 509
853897 855951 419
489173 662373 509
154503 493425 449
618955 853567 525
959209 275031 525
197481 199278 329
374362 135651 443
385162 615665 470
652911 56630 509
680854 786728 504
835446 579058 509
66811 375049 443
566247 784530 509
224550 875335 525
271285 849615 525
42255 118361 354
419453 860483 525
862541 430518 525
653890 384586 509
275766 244384 407
762823 775848 468
848251 315527 525
162801 181689 365
803217 195905 509
968760 239485 525
363258 584942 470
910410 580793 525
453380 436908 400
727756 519954 509
248810 829259 509
291386 217608 443
963563 858064 507
632839 478064 509
667150 290379 509
782586 95976 509
415078 866263 525
523566 22644 470
119893 37091 354
551220 241058 470
815634 431902 509
659081 222809 509
899004 167032 525
734142 447329 509
943406 357558 525
322023 401800 441
431379 256741 449
75443 412827 449
610658 411158 470
496418 680379 509
273166 644075 509
524898 866407 525
470602 13649 449
195150 461476 449
69003 373188 443
904534 128228 525
830412 48894 509
679958 981386 525
243900 891974 525
288204 625816 470
923992 228021 525
810861 636417 504
691163 513933 509
509149 775232 509
825251 576318 509
447496 998857 525
263251 652455 509
696532 828432 504
376003 33079 443
998267 225284 525
353224 740786 509
684345 884003 525
540442 112122 470
891293 261728 525
870400 664793 525
694642 445615 509
221309 125468 386
34142 176101 383
847745 593644 525
368129 572911 470
228691 430056 449
727670 30128 509
250728 28336 443
607896 790158 509
598285 887552 525
57356 2188 340
926138 534554 525
877481 124016 525
540826 864537 525
988436 651419 525
9148 461381 449
8052 248432 443
375947 363331 392
186163 349264 443
725382 402731 509
786181 99429 509
67015 677228 509
823077 336465 509
570589 836513 509
460042 53928 449
982302 634263 525
740419 828049 468
118455 961429 525
298187 595325 470
274268 839358 525
762584 960340 525
668031 590109 509
469398 665863 509
967983 778029 525
126170 809307 509
583546 818672 509
